^C:\USERS\NEEL.PATEL\DEV\HAZEL\BIN-INT\RELEASE-X64\SANDBOX\APPLICATION.OBJ|C:\USERS\NEEL.PATEL\DEV\HAZEL\BIN\RELEASE-X64\HAZEL\HAZEL.LIB
/OUT:"C:\USERS\NEEL.PATEL\DEV\HAZEL\BIN\RELEASE-X64\SANDBOX\SANDBOX.EXE" /INCREMENTAL:NO /NOLOGO KERNEL32.LIB USER32.LIB GDI32.LIB WINSPOOL.LIB COMDLG32.LIB ADVAPI32.LIB SHELL32.LIB OLE32.LIB OLEAUT32.LIB UUID.LIB ODBC32.LIB ODBCCP32.LIB /MANIFEST /MANIFESTUAC:"level='asInvoker' uiAccess='false'" /manifest:embed /DEBUG /PDB:"C:\USERS\NEEL.PATEL\DEV\HAZEL\BIN\RELEASE-X64\SANDBOX\SANDBOX.PDB" /SUBSYSTEM:CONSOLE /OPT:REF /OPT:ICF /LTCG:incremental /TLBID:1 /DYNAMICBASE /NXCOMPAT /IMPLIB:"C:\USERS\NEEL.PATEL\DEV\HAZEL\BIN\RELEASE-X64\SANDBOX\SANDBOX.LIB" /MACHINE:X64 "C:\USERS\NEEL.PATEL\DEV\HAZEL\BIN-INT\RELEASE-X64\SANDBOX\APPLICATION.OBJ"
"C:\USERS\NEEL.PATEL\DEV\HAZEL\BIN\RELEASE-X64\HAZEL\HAZEL.LIB"
