^C:\Users\neel.patel\Dev\Hazel\Hazel.vcxproj
C:\Users\neel.patel\dev\Hazel\bin\Release-x64\Hazel\Hazel.lib
C:\Users\neel.patel\dev\Hazel\bin\Release-x64\Hazel\Hazel.exp
C:\Users\neel.patel\dev\Hazel\bin\Release-x64\Hazel\Hazel.ipdb
C:\Users\neel.patel\dev\Hazel\bin\Release-x64\Hazel\Hazel.iobj
